<?xml version="1.0" encoding="UTF-8" standalone="no"?>
<!-- Created with Inkscape (http://www.inkscape.org/) -->

<svg
   width="86.502136mm"
   height="66.725609mm"
   viewBox="0 0 86.502136 66.725609"
   version="1.1"
   id="svg5"
   inkscape:version="1.1.2 (0a00cf5339, 2022-02-04)"
   sodipodi:docname="logo-404.svg"
   xmlns:inkscape="http://www.inkscape.org/namespaces/inkscape"
   xmlns:sodipodi="http://sodipodi.sourceforge.net/DTD/sodipodi-0.dtd"
   xmlns="http://www.w3.org/2000/svg"
   xmlns:svg="http://www.w3.org/2000/svg">
  <sodipodi:namedview
     id="namedview7"
     pagecolor="#ffffff"
     bordercolor="#666666"
     borderopacity="1.0"
     inkscape:pageshadow="2"
     inkscape:pageopacity="0"
     inkscape:pagecheckerboard="false"
     inkscape:document-units="mm"
     showgrid="false"
     inkscape:zoom="1.8236772"
     inkscape:cx="106.65265"
     inkscape:cy="134.34395"
     inkscape:window-width="1920"
     inkscape:window-height="1011"
     inkscape:window-x="0"
     inkscape:window-y="0"
     inkscape:window-maximized="1"
     inkscape:current-layer="layer6"
     borderlayer="true"
     showborder="false"
     inkscape:snap-smooth-nodes="true"
     showguides="true"
     inkscape:guide-bbox="true">
    <sodipodi:guide
       position="3.6408169,9.8533344"
       orientation="1,0"
       id="guide859" />
    <sodipodi:guide
       position="83.291018,15.946792"
       orientation="1,0"
       id="guide861" />
  </sodipodi:namedview>
  <defs
     id="defs2">
    <marker
       style="overflow:visible"
       id="Arrow1Lstart"
       refX="0"
       refY="0"
       orient="auto"
       inkscape:stockid="Arrow1Lstart"
       inkscape:isstock="true">
      <path
         transform="matrix(0.8,0,0,0.8,10,0)"
         style="fill:context-stroke;fill-rule:evenodd;stroke:context-stroke;stroke-width:1pt"
         d="M 0,0 5,-5 -12.5,0 5,5 Z"
         id="path1046" />
    </marker>
  </defs>
  <g
     inkscape:groupmode="layer"
     id="layer2"
     inkscape:label="arms behind"
     style="display:inline"
     transform="translate(-51.850087,-129.82616)">
    <path
       style="fill:none;stroke:#000000;stroke-width:2;stroke-linecap:butt;stroke-linejoin:miter;stroke-miterlimit:4;stroke-dasharray:none;stroke-opacity:1"
       d="m 83.623828,150.30465 c -1.057171,-1.99308 -2.82395,-5.65646 -3.041351,-7.90445 -0.217403,-2.248 -0.184643,-5.59397 0.339014,-6.88462 0.58311,-1.43718 1.668896,-2.80161 3.73386,-3.19995 2.017446,-0.38917 4.77062,0.25666 5.856931,1.16273 0.994348,0.82937 1.698908,1.84111 1.698908,1.84111"
       id="path6558"
       sodipodi:nodetypes="cssssc" />
    <path
       style="fill:none;stroke:#000000;stroke-width:2;stroke-linecap:butt;stroke-linejoin:miter;stroke-miterlimit:4;stroke-dasharray:none;stroke-opacity:1"
       d="m 114.60706,150.59298 c 0,0 2.39959,-3.16882 3.09681,-5.8408 0.69722,-2.67198 1.25434,-6.16891 0.89683,-7.913 -0.35629,-1.73816 -0.86699,-3.97674 -1.87339,-5.07247 -1.00202,-1.09095 -4.00378,-1.36006 -6.19367,-0.12091 -2.1899,1.23915 -3.75027,4.18803 -3.75027,4.18803"
       id="path6560"
       sodipodi:nodetypes="cssssc" />
  </g>
  <g
     inkscape:groupmode="layer"
     id="layer4"
     inkscape:label="computer"
     transform="translate(-51.850087,-129.82616)"
     style="display:inline" />
  <g
     inkscape:groupmode="layer"
     id="layer3"
     inkscape:label="letters"
     style="display:inline"
     transform="translate(-51.850087,-129.82616)">
    <ellipse
       style="fill:none;stroke:#2a94e3;stroke-width:9;stroke-linecap:round;stroke-miterlimit:4;stroke-dasharray:none;stroke-opacity:1"
       id="path35682"
       cx="98.923599"
       cy="160.71117"
       rx="14.001583"
       ry="21.273037" />
    <path
       style="fill:none;stroke:#2a94e3;stroke-width:9;stroke-linecap:butt;stroke-linejoin:miter;stroke-miterlimit:4;stroke-dasharray:none;stroke-opacity:1"
       d="m 127.2698,137.87289 c 0,0 -10.38872,25.74378 -0.57764,42.16851"
       id="path37095"
       sodipodi:nodetypes="cc" />
    <path
       style="fill:none;stroke:#2a94e3;stroke-width:9;stroke-linecap:round;stroke-linejoin:miter;stroke-miterlimit:4;stroke-dasharray:none;stroke-opacity:1"
       d="m 121.44883,136.66263 11.33221,2.43552"
       id="path37097"
       sodipodi:nodetypes="cc" />
    <path
       style="fill:none;stroke:#2a94e3;stroke-width:9;stroke-linecap:round;stroke-linejoin:miter;stroke-miterlimit:4;stroke-dasharray:none;stroke-opacity:1"
       d="m 120.77409,182.26576 10.67881,-0.16148"
       id="path37099"
       sodipodi:nodetypes="cc" />
    <path
       style="fill:none;stroke:#2a94e3;stroke-width:9;stroke-linecap:round;stroke-linejoin:round;stroke-miterlimit:4;stroke-dasharray:none;stroke-opacity:1"
       d="m 60.185626,138.14184 c 0,0 11.995317,-3.54488 14.075403,5.6235 1.74488,7.6909 -12.454741,13.90792 -12.454741,13.90792 0,0 13.521875,-1.20646 14.606774,12.57904 1.084899,13.78551 -17.480289,11.02008 -17.480289,11.02008 l 2.873515,-23.59912 z"
       id="path37286"
       sodipodi:nodetypes="cscsccc" />
  </g>
  <g
     inkscape:groupmode="layer"
     id="layer5"
     inkscape:label="face"
     style="display:inline"
     transform="translate(-51.850087,-129.82616)">
    <ellipse
       style="fill:#000000;fill-opacity:1;stroke:none;stroke-width:4;stroke-linecap:round;stroke-miterlimit:4;stroke-dasharray:none;stroke-opacity:1"
       id="path43369"
       cx="106.64503"
       cy="142.28873"
       rx="2.4026933"
       ry="3.6126049" />
    <ellipse
       style="display:inline;fill:#000000;fill-opacity:1;stroke:none;stroke-width:4;stroke-linecap:round;stroke-miterlimit:4;stroke-dasharray:none;stroke-opacity:1"
       id="path43369-8"
       cx="90.809731"
       cy="142.37888"
       rx="2.4026933"
       ry="3.6126049" />
    <ellipse
       style="display:inline;fill:#000000;fill-opacity:1;stroke:none;stroke-width:4;stroke-linecap:round;stroke-miterlimit:4;stroke-dasharray:none;stroke-opacity:1"
       id="path43369-8-5"
       cx="154.38588"
       cy="98.478882"
       rx="2.4026933"
       ry="3.6126049"
       transform="rotate(15.789739)" />
    <ellipse
       style="display:inline;fill:#000000;fill-opacity:1;stroke:none;stroke-width:4;stroke-linecap:round;stroke-miterlimit:4;stroke-dasharray:none;stroke-opacity:1"
       id="path43369-8-5-4"
       cx="165.31987"
       cy="97.537376"
       rx="2.4026933"
       ry="3.6126049"
       transform="rotate(15.789739)" />
    <ellipse
       style="display:inline;fill:#000000;fill-opacity:1;stroke:none;stroke-width:4;stroke-linecap:round;stroke-miterlimit:4;stroke-dasharray:none;stroke-opacity:1"
       id="path43369-8-5-7-6-3"
       cx="8.5529194"
       cy="151.1218"
       rx="2.4026933"
       ry="3.6126049"
       transform="rotate(-20.733797)" />
    <ellipse
       style="display:inline;fill:#000000;fill-opacity:1;stroke:none;stroke-width:4;stroke-linecap:round;stroke-miterlimit:4;stroke-dasharray:none;stroke-opacity:1"
       id="path43369-8-5-7-6-3-6"
       cx="14.742397"
       cy="152.73822"
       rx="2.4026933"
       ry="3.6126049"
       transform="rotate(-20.733797)" />
    <path
       style="fill:none;stroke:#000000;stroke-width:2;stroke-linecap:round;stroke-linejoin:miter;stroke-miterlimit:4;stroke-dasharray:none;stroke-opacity:1"
       d="m 95.432302,141.46108 c 1.490685,-1.86203 5.976618,1.49902 6.958518,-0.27579"
       id="path43698"
       sodipodi:nodetypes="cc" />
    <path
       style="fill:none;stroke:#000000;stroke-width:2;stroke-linecap:round;stroke-linejoin:miter;stroke-miterlimit:4;stroke-dasharray:none;stroke-opacity:1"
       d="m 123.36672,143.75165 c 0.25025,-0.53923 2.53149,1.01642 3.88735,0.86315"
       id="path43733"
       sodipodi:nodetypes="cc" />
    <path
       style="fill:none;stroke:#000000;stroke-width:2;stroke-linecap:round;stroke-linejoin:miter;stroke-miterlimit:4;stroke-dasharray:none;stroke-opacity:1"
       d="m 73.352741,145.56277 c -0.138225,-0.14499 1.791723,-1.76914 3.769937,-1.98309"
       id="path43768"
       sodipodi:nodetypes="cc" />
  </g>
  <g
     inkscape:label="arms in front"
     inkscape:groupmode="layer"
     id="layer1"
     style="display:inline"
     transform="translate(-51.850087,-129.82616)">
    <path
       style="fill:none;fill-opacity:1;stroke:#000000;stroke-width:2;stroke-linecap:round;stroke-linejoin:miter;stroke-miterlimit:4;stroke-dasharray:none;stroke-opacity:1"
       d="m 92.21119,135.31947 4.455041,-1.22"
       id="path47047"
       sodipodi:nodetypes="cc" />
    <path
       style="fill:none;fill-opacity:1;stroke:#000000;stroke-width:2;stroke-linecap:round;stroke-linejoin:miter;stroke-miterlimit:4;stroke-dasharray:none;stroke-opacity:1"
       d="m 92.21119,135.31947 4.84262,1.66712"
       id="path47049"
       sodipodi:nodetypes="cc" />
    <path
       style="fill:none;fill-opacity:1;stroke:#000000;stroke-width:2;stroke-linecap:round;stroke-linejoin:miter;stroke-miterlimit:4;stroke-dasharray:none;stroke-opacity:1"
       d="m 92.21119,135.31947 2.737841,3.34366"
       id="path47051"
       sodipodi:nodetypes="cc" />
    <path
       style="display:inline;fill:none;fill-opacity:1;stroke:#000000;stroke-width:2;stroke-linecap:round;stroke-linejoin:miter;stroke-miterlimit:4;stroke-dasharray:none;stroke-opacity:1"
       d="m 106.78337,135.83383 -3.52806,-1.02072"
       id="path44617"
       sodipodi:nodetypes="cc" />
    <path
       style="display:inline;fill:none;fill-opacity:1;stroke:#000000;stroke-width:2;stroke-linecap:round;stroke-linejoin:miter;stroke-miterlimit:4;stroke-dasharray:none;stroke-opacity:1"
       d="m 106.78337,135.83383 -3.83534,1.32315"
       id="path44814"
       sodipodi:nodetypes="cc" />
    <path
       style="display:inline;fill:none;fill-opacity:1;stroke:#000000;stroke-width:2;stroke-linecap:round;stroke-linejoin:miter;stroke-miterlimit:4;stroke-dasharray:none;stroke-opacity:1"
       d="m 106.78337,135.83383 -1.82968,3.06103"
       id="path44816"
       sodipodi:nodetypes="cc" />
  </g>
  <g
     inkscape:groupmode="layer"
     id="layer6"
     inkscape:label="year"
     transform="translate(0.38417298,-11.548106)">
    <g
       aria-label="DENMARK 2023"
       id="text7596"
       style="font-weight:bold;font-size:9.87778px;line-height:1.25;font-family:'Comic Neue';-inkscape-font-specification:'Comic Neue Bold';text-align:center;letter-spacing:1.32292px;text-anchor:middle;fill:#959595;stroke:#959595;stroke-width:0.9"
       transform="translate(0.13132372)">
      <g
         aria-label="404 NOT FOUND"
         id="text10217">
        <path
           d="m 2.907715,77.774329 c 0.2568222,0 0.4840112,-0.227189 0.4840112,-0.474133 v -1.007534 h 0.059267 c 0.2568222,0 0.493889,-0.207433 0.493889,-0.474133 0,-0.256822 -0.1876779,-0.474133 -0.4543779,-0.474133 h -0.098778 v -3.69429 c 0,-0.2667 -0.2074334,-0.474134 -0.4840112,-0.474134 -0.1679223,0 -0.3062112,0.07902 -0.3951112,0.227189 l -2.49907837,4.109157 c -0.0493889,0.0889 -0.07902224,0.148166 -0.07902224,0.2667 0,0.276578 0.18767782,0.464256 0.47413344,0.464256 l 2.02494487,0.02963 v 1.027289 c 0,0.246944 0.2074334,0.474133 0.4741335,0.474133 z M 2.4335815,75.32464 1.2482479,75.295007 2.4335815,73.349084 Z"
           id="path901" />
        <path
           d="m 8.3101567,77.764452 c 1.3532558,0 2.4595673,-1.600201 2.4595673,-3.437468 0,-1.679222 -0.9383892,-3.141134 -2.2521339,-3.141134 -1.3828892,0 -2.469445,1.639712 -2.469445,3.447345 0,1.659467 0.9383891,3.131257 2.2620116,3.131257 z m 0,-0.948267 c -0.7803446,0 -1.3236225,-1.056923 -1.3236225,-2.202745 0,-1.353256 0.7013223,-2.479323 1.5310559,-2.479323 0.760589,0 1.3236225,1.047045 1.3236225,2.212623 0,1.343378 -0.7112002,2.469445 -1.5310559,2.469445 z"
           id="path903" />
        <path
           d="m 15.836309,77.774329 c 0.256822,0 0.484011,-0.227189 0.484011,-0.474133 v -1.007534 h 0.05927 c 0.256823,0 0.493889,-0.207433 0.493889,-0.474133 0,-0.256822 -0.187677,-0.474133 -0.454377,-0.474133 h -0.09878 v -3.69429 c 0,-0.2667 -0.207434,-0.474134 -0.484011,-0.474134 -0.167923,0 -0.306212,0.07902 -0.395112,0.227189 l -2.499078,4.109157 c -0.04939,0.0889 -0.07902,0.148166 -0.07902,0.2667 0,0.276578 0.187678,0.464256 0.474133,0.464256 l 2.024945,0.02963 v 1.027289 c 0,0.246944 0.207434,0.474133 0.474134,0.474133 z m -0.474134,-2.449689 -1.185333,-0.02963 1.185333,-1.945923 z"
           id="path905" />
        <path
           d="m 24.576728,77.764452 c 0.2667,0 0.493889,-0.207434 0.493889,-0.484012 l 0.0099,-4.188178 3.081868,4.454878 c 0.09878,0.138289 0.256822,0.217312 0.404989,0.217312 0.2667,0 0.484011,-0.197556 0.484011,-0.484012 v -5.758745 c 0,-0.2667 -0.227189,-0.493889 -0.484011,-0.493889 -0.276578,0 -0.493889,0.227189 -0.493889,0.493889 v 4.198056 L 24.98174,71.245117 c -0.0889,-0.128411 -0.256823,-0.207434 -0.404989,-0.207434 -0.276578,0 -0.474134,0.227189 -0.474134,0.484012 l -0.0099,5.758745 c 0,0.256823 0.227189,0.484012 0.484012,0.484012 z"
           id="path907" />
        <path
           d="m 34.068557,77.764452 c 1.590323,0 2.953456,-1.56069 2.953456,-3.615268 0,-1.797756 -1.086556,-3.121378 -2.568223,-3.121378 -1.570567,0 -2.943578,1.560689 -2.943578,3.615267 0,1.778001 1.0668,3.121379 2.558345,3.121379 z m 0,-0.938389 c -0.809978,0 -1.570567,-0.740834 -1.570567,-2.18299 0,-1.570567 0.859367,-2.676878 1.896534,-2.676878 0.809978,0 1.639711,0.780344 1.639711,2.2225 0,1.570567 -0.898878,2.637368 -1.965678,2.637368 z"
           id="path909" />
        <path
           d="m 41.03167,77.764452 c 0.2667,0 0.484011,-0.227189 0.484011,-0.484012 v -5.20559 h 1.560689 c 0.276578,0 0.484011,-0.227189 0.484011,-0.493889 0,-0.276577 -0.207433,-0.484011 -0.484011,-0.484011 h -4.089401 c -0.256822,0 -0.484011,0.207434 -0.484011,0.484011 0,0.2667 0.227189,0.493889 0.484011,0.493889 h 1.550812 v 5.20559 c 0,0.256823 0.227188,0.484012 0.493889,0.484012 z"
           id="path911" />
        <path
           d="m 51.016671,77.774329 c 0.276577,0 0.493889,-0.217311 0.493889,-0.493889 v -2.518833 h 2.627489 c 0.276578,0 0.484011,-0.227189 0.484011,-0.484012 0,-0.276578 -0.207433,-0.503766 -0.484011,-0.503766 H 51.51056 V 72.07485 h 3.447345 c 0.276578,0 0.484011,-0.237066 0.484011,-0.493889 0,-0.276577 -0.207433,-0.493889 -0.484011,-0.493889 h -3.941234 c -0.276578,0 -0.493889,0.217312 -0.493889,0.493889 v 5.699479 c 0,0.276578 0.217311,0.493889 0.493889,0.493889 z"
           id="path913" />
        <path
           d="m 59.412063,77.764452 c 1.590322,0 2.953456,-1.56069 2.953456,-3.615268 0,-1.797756 -1.086556,-3.121378 -2.568223,-3.121378 -1.570567,0 -2.943578,1.560689 -2.943578,3.615267 0,1.778001 1.0668,3.121379 2.558345,3.121379 z m 0,-0.938389 c -0.809978,0 -1.570567,-0.740834 -1.570567,-2.18299 0,-1.570567 0.859367,-2.676878 1.896534,-2.676878 0.809978,0 1.639711,0.780344 1.639711,2.2225 0,1.570567 -0.898878,2.637368 -1.965678,2.637368 z"
           id="path915" />
        <path
           d="m 67.293816,77.764452 c 1.748368,0 2.558345,-1.086556 2.765779,-2.667001 0.0889,-0.691445 0.118533,-1.313745 0.118533,-1.936045 0,-0.661811 -0.03951,-1.531056 -0.03951,-1.649589 0,-0.148167 -0.05927,-0.474134 -0.484011,-0.474134 -0.424745,0 -0.493889,0.335845 -0.493889,0.493889 0,0.572912 0.0099,1.086556 0.0099,1.580445 0,0.651934 -0.01976,1.244601 -0.0889,1.906412 -0.158045,1.373011 -0.938389,1.837267 -1.768123,1.837267 -1.293989,0 -1.659467,-1.4224 -1.708856,-2.854679 -0.0099,-0.414866 -0.01975,-0.780344 -0.01975,-1.145822 0,-0.434622 0.01975,-0.859367 0.01975,-1.343378 0,-0.158045 -0.07902,-0.474134 -0.474133,-0.474134 -0.404989,0 -0.513645,0.306212 -0.513645,0.464256 0,0.513645 -0.01976,0.987778 -0.01976,1.5113 0,0.345723 0.0099,0.711201 0.01976,1.126067 0.06914,2.133601 1.007534,3.625146 2.676878,3.625146 z"
           id="path917" />
        <path
           d="m 73.23952,77.764452 c 0.2667,0 0.493889,-0.207434 0.493889,-0.484012 l 0.0099,-4.188178 3.081867,4.454878 c 0.09878,0.138289 0.256822,0.217312 0.404989,0.217312 0.2667,0 0.484011,-0.197556 0.484011,-0.484012 v -5.758745 c 0,-0.2667 -0.227189,-0.493889 -0.484011,-0.493889 -0.276578,0 -0.493889,0.227189 -0.493889,0.493889 v 4.198056 l -3.091745,-4.474634 c -0.0889,-0.128411 -0.256823,-0.207434 -0.404989,-0.207434 -0.276578,0 -0.474134,0.227189 -0.474134,0.484012 l -0.0099,5.758745 c 0,0.256823 0.227189,0.484012 0.484011,0.484012 z"
           id="path919" />
        <path
           d="m 82.07942,77.823718 c 1.906411,0 3.457223,-0.938389 3.457223,-3.091745 0,-3.111501 -2.943579,-3.644901 -4.524024,-3.644901 -0.276578,0 -0.493889,0.207434 -0.493889,0.484012 v 5.600701 c 0,0.217311 0.167923,0.414867 0.375356,0.484011 0.0889,0.02963 0.642056,0.167922 1.185334,0.167922 z m 0,-0.987778 c -0.197556,0 -0.404989,-0.02963 -0.572912,-0.05927 v -4.682068 c 1.64959,0.128411 3.042357,0.809978 3.042357,2.637367 0,1.412523 -0.968023,2.103967 -2.469445,2.103967 z"
           id="path921" />
      </g>
    </g>
    <text
       xml:space="preserve"
       style="font-weight:bold;font-size:5.29167px;line-height:1.25;font-family:'Nimbus Sans L';-inkscape-font-specification:'Nimbus Sans L Bold';text-align:center;text-anchor:middle;stroke-width:0.264583"
       x="-41.194656"
       y="33.66013"
       id="text1355"><tspan
         sodipodi:role="line"
         id="tspan1353"
         style="stroke-width:0.264583"
         x="-41.194656"
         y="33.66013" /></text>
  </g>
</svg>
